module standup-meeting

go 1.19

require (
	github.com/joho/godotenv v1.5.1
	github.com/mattermost/mattermost-server/v5 v5.39.3
)

require (
	github.com/blang/semver v3.5.1+incompatible // indirect
	github.com/dustin/go-humanize v1.0.0 // indirect
	github.com/dyatlov/go-opengraph v0.0.0-20210112100619-dae8665a5b09 // indirect
	github.com/francoispqt/gojay v1.2.13 // indirect
	github.com/go-asn1-ber/asn1-ber v1.5.3 // indirect
	github.com/google/uuid v1.2.0 // indirect
	github.com/gorilla/websocket v1.4.2 // indirect
	github.com/hashicorp/errwrap v1.1.0 // indirect
	github.com/hashicorp/go-multierror v1.1.1 // indirect
	github.com/json-iterator/go v1.1.11 // indirect
	github.com/klauspost/cpuid/v2 v2.0.6 // indirect
	github.com/mattermost/go-i18n v1.11.0 // indirect
	github.com/mattermost/ldap v0.0.0-20201202150706-ee0e6284187d // indirect
	github.com/mattermost/logr v1.0.13 // indirect
	github.com/minio/md5-simd v1.1.2 // indirect
	github.com/minio/minio-go/v7 v7.0.11 // indirect
	github.com/minio/sha256-simd v1.0.0 // indirect
	github.com/mitchellh/go-homedir v1.1.0 // indirect
	github.com/modern-go/concurrent v0.0.0-20180306012644-bacd9c7ef1dd // indirect
	github.com/modern-go/reflect2 v1.0.1 // indirect
	github.com/pborman/uuid v1.2.1 // indirect
	github.com/pelletier/go-toml v1.9.3 // indirect
	github.com/philhofer/fwd v1.1.1 // indirect
	github.com/pkg/errors v0.9.1 // indirect
	github.com/rs/xid v1.3.0 // indirect
	github.com/sirupsen/logrus v1.8.1 // indirect
	github.com/tinylib/msgp v1.1.6 // indirect
	github.com/wiggin77/cfg v1.0.2 // indirect
	github.com/wiggin77/merror v1.0.3 // indirect
	github.com/wiggin77/srslog v1.0.1 // indirect
	go.uber.org/atomic v1.8.0 // indirect
	go.uber.org/multierr v1.7.0 // indirect
	go.uber.org/zap v1.17.0 // indirect
	golang.org/x/crypto v0.0.0-20210616213533-5ff15b29337e // indirect
	golang.org/x/net v0.0.0-20210614182718-04defd469f4e // indirect
	golang.org/x/sys v0.0.0-20210616094352-59db8d763f22 // indirect
	golang.org/x/text v0.3.6 // indirect
	gopkg.in/ini.v1 v1.62.0 // indirect
	gopkg.in/natefinch/lumberjack.v2 v2.0.0 // indirect
	gopkg.in/yaml.v2 v2.4.0 // indirect
)
